…
    [1] "22.657952"  "120.324472"
    [[5]]
    [1] "22.639282"  "120.330766"
    [[6]]
    [1] "22.641744"  "120.313873"
    ```
2. 可以發現雖然成功切開，不過變成 List of lists 的形式
3. 這時我們只要善用`sapply`搭配`[`就可以取出每個list中的第1個元素
4. 搭配`mutate`的效果：
    ```
    > dt %>% mutate(
        lat=sapply(strsplit(dt$發生地點GPS,','),"[",1),
        lng=sapply(strsplit(dt$發生地點GPS,','),"[",2)
      ) %>% select(lat,lng)
    # A tibble: 2,790 x 2
       lat       lng       
       <chr>     <chr>     
     1 22.627126 120.312473
     2 22.624569 120.360211
     3 22.611157 120.329407
     4 22.657952 120.324472
     5 22.639282 120.330766
     6 22.641744 120.313873
     7 22.644323 120.298523
     8 22.647354 120.314703
     9 22.633798 120.313527
    10 22.633798 120.313527
    # ... with 2,780 more rows
    ```

## Solution2：using `tidyr::seperate`

後來在找相關資料的時候，找到了`tidyr`的`seperate`，直接一行搞定。

`seperate {tidyr}`的`help document`標題寫得很清楚：

> Separate a character column into multiple columns using a regular expression separator.

實際操作試試看
``` r
> dt %>% separate(發生地點GPS, c("lat", "lng"),sep=',') %>% select(lat,lng)
# A tibble: 2,790 x 2
   lat       lng       
   <chr>     <chr>     
 1 22.627126 120.312473
 2 22.624569 120.360211
 3 22.611157 120.329407
 4 22.657952 120.324472
 5 22.639282 120.330766
 6 22.641744 120.313873
 7 22.644323 120.298523
 8 22.647354 120.314703
 9 22.633798 120.313527
10 22.633798 120.313527
# ... with 2,780 more rows
```
…
